Accessories	1000 Mbps	1000 Mbps	1208
Adonia Organics	3. Part	3. Part	1711
Agadir Argan Oil	3Com	3Com	1711
Agent Provocateur	3DFX COOL	3DFX COOL	3051
Alterna	3DFX Interactive	3DFX Interactive	4445
Amanprana	3DLabs	3DLabs	4445
Amargan	A-I	A-I	9340
American Crew	A4tech	A4tech	13922
Anna Sui	Aashima	Aashima	14387
Anny	Abit	Abit	15907
Ardell	Absolute	Absolute	21630
Atkins	AC Ryan	AC Ryan	24888
Aviator Sunglasses	Accton	Accton	30678
Axellus	Acer	Acer	30687
Babor	Actima	Actima	42264
Babyliss	Adaptec	Adaptec	56888
Bac Away	Adaptere, eksterne	Adaptere, eksterne	62058
bareMinerals	Adaptere, intern/ekstern	Adaptere, intern/ekstern	67923
Beauty Blender	Adaptere, interne	Adaptere, interne	67932
Beauty Organizers	Addonics	Addonics	87251
Becksöndergaard	Addtron	Addtron	93319
Beond	ADi	ADi	100206
Billion Dollar Brows	Adobe	Adobe	142679
Biohazard Sunglasses	ADS	ADS	152082
Biosilk	ADSL	ADSL	156233
Biotherm	Advansys	Advansys	180794
Biotherm Homme	Afreey	Afreey	308502
Blax	Agfa	Agfa	310680
Bliss	Ahead	Ahead	310915
Blush.no	AipTek	AipTek	373790
Blush.no Gavekort	Aksesspunkt	Aksesspunkt	451773
BOSCH	Aksesspunkt + Router	Aksesspunkt + Router	460782
BRAUN	Alpine	Alpine	472863
Britney Spears	Altec Lansing	Altec Lansing	480664
Bumble and bumble	AmbiCom	AmbiCom	488692
Burberry	AMD	AMD	512483
Burt's Bees	AMI	AMI	540973
Cacharel	Anir	Anir	591509
Calvin Klein	Antec	Antec	800260
CandyStore	AOC	AOC	801806
Carita	Aopen	Aopen	804014
Carolina Herrera	Apacer	Apacer	804061
Cg Sunglasses	Apollo	Apollo	806711
Chanel	Appian	Appian	807498
CHI	Apple	Apple	807730
Chi Man	Arbeidsstasjon	Arbeidsstasjon	808931
Chloé	ARC	ARC	809547
Choppers Sunglasses	Archos	Archos	811087
Christian Dior	Arcserv	Arcserv	811282
Christina Aquilera	Artec	Artec	812552
Ciaté	Ascom	Ascom	813238
Cinecitta Pennollo	ASK	ASK	814440
Clarins	Assistent	Assistent	814677
Clarins Men	Astra	Astra	815606
Clean	Asus	Asus	815829
Clinique	Asuscom	Asuscom	816227
Clinique Men	ATC	ATC	816350
Cloud Nine	Aten	Aten	816705
Collett	Athlon	Athlon	817053
Contigo	Athlon MP	Athlon MP	817061
Crabtree & Evelyn	ATI	ATI	817120
Cupcake Organic	AVANTECH	AVANTECH	817223
D:Fi	Avendo	Avendo	817233
Daniel Wellington	Axis	Axis	818379
Darphin	B2B	B2B	818904
David Beckham	Bærbart	Bærbart	820148
Davidoff	Balder	Balder	823500
Davines	batterier	batterier	824544
Deborah Lippmann	batteriladere	batteriladere	825062
Decleor	Bcom	Bcom	829278
Decléor	Belkin	Belkin	829644
DENTWAY	Best	Best	830707
Dermalogica	Billion	Billion	832419
Dg Sunglasses	Billionton	Billionton	835012
Diesel	Blitz, linser, adaptere	Blitz, linser, adaptere	835156
Disney	Bluetooth	Bluetooth	835803
DKNY	Bogart	Bogart	836860
Dolce & Gabbana	Borland	Borland	837439
Donna Karan	Brother	Brother	838474
Dr. Brandt	BTC	BTC	838630
Duo	Bundles	Bundles	838771
Durance	Canon	Canon	839814
Ed Hardy	Canopus	Canopus	839871
Elemis	Cardexpert	Cardexpert	839874
Elemis - Time for men	Casio	Casio	840356
Elizabeth Arden	CD-kabinett	CD-kabinett	841541
Emi-Jay	CD-R	CD-R	845337
English Tea Shop	CD-RW	CD-RW	845416
EOS	Celeron	Celeron	846543
Escada	Centos	Centos	847085
Essie	Certance	Certance	847312
Estée Lauder	CFI	CFI	848015
Exentri	Chaintech	Chaintech	849092
Fake Bake	Chenbro	Chenbro	851222
Firm Shape	Cherry	Cherry	851514
Flo	Chieftec	Chieftec	851633
Framesi	Cisco	Cisco	851766
French Connection	CNet	CNet	852564
Fudge	Coax	Coax	852570
Fusion Beauty	Commbridge	Commbridge	853081
Gerimax	ComOne	ComOne	853617
GHD	Compaq	Compaq	855490
GHD Rettetang	Confidence	Confidence	856595
Gillette	Consept	Consept	859246
Giorgio Armani	Cooler Master	Cooler Master	860181
Givenchy	Corel	Corel	860194
Glam Glow	Corsair	Corsair	860836
Glominerals	Cowon	Cowon	861674
Goldwell	Creative	Creative	861877
GoToob	Crucial	Crucial	862136
Green & Black's	CyberHome	CyberHome	862273
Gucci	CyberLink	CyberLink	862525
Guerlain	D-link	D-link	864396
Gwen Stefani	Dantz	Dantz	864426
Halycon Days	DataExpert	DataExpert	864617
Hawaiian Tropic	Datafab	Datafab	864637
Helena Rubinstein	Datapower	Datapower	864683
HEMPZ	Datawrite	Datawrite	865113
Hermes	Davis	Davis	865191
HH Simonsen	Daytona	Daytona	866225
Hot Tot	Destiny	Destiny	866294
Hugo Boss	Dexxa	Dexxa	868174
I Am Pure	Diamond	Diamond	868293
id HAIR	Digital	Digital	868444
Invisi Bobble	Disc Repair Pro	Disc Repair Pro	868513
Issey Miyake	DiscDreamer	DiscDreamer	869200
iWhite	Diskkabinett	Diskkabinett	869502
J. LO	Disneyblast	Disneyblast	870071
J.LO	Diverse	Diverse	870712
Jan Thomas	Dockingstasjon, USB-kabel	Dockingstasjon, USB-kabel	870964
Jean Paul Gaultier	Doro	Doro	871066
Jennifer Lopez	Duo Port	Duo Port	871698
Jimmy Choo	Duron	Duron	872952
John Masters Organics	DV-tape	DV-tape	873149
Joico	DVD	DVD	873164
Jonathan	Dymo	Dymo	874589
Jonathan products	Dynalink	Dynalink	874608
Juicy Couture	Dynamic	Dynamic	875851
Justin Bieber	Eagle	Eagle	876041
Kakalaqic	Eicon Diva	Eicon Diva	876120
Kanebo	Eizo	Eizo	876285
Kari Traa	EKL	EKL	878402
Kenzo	Ekstern	Ekstern	879048
Kérastase	Electronic Arts	Electronic Arts	879257
Kérastase Homme	ELMA	ELMA	880757
Keune	Elsa	Elsa	882258
Kms California	Eltax	Eltax	883137
Kolokrem	Eltek	Eltek	883561
KÖNIG	Eltron	Eltron	885225
Korres	eMagic	eMagic	885429
KOSS	Emine	Emine	886184
L'Oréal Homme	Enermax	Enermax	887733
L'Oreal Paris	Enhance	Enhance	889230
L'Oréal Playball	Enkel (uten management)	Enkel (uten management)	889717
L'Oréal Professionnel	Enlight	Enlight	890342
L'Oréal Serie Expert	Eon	Eon	890758
L'Oréal Serie Nature	EPoX	EPoX	891141
L'Oréal TecniArt	Epson	Epson	891669
L`Occitane	Ergonomiske Mus	Ergonomiske Mus	895400
Label.m	Ergotron	Ergotron	899459
Lacoste	Eurocase	Eurocase	899617
Lady Gaga	Evolis	Evolis	900025
Lagerfeld	Evoluent	Evoluent	900312
Lancaster	F-Secure	F-Secure	901299
Lancome	Fellowes	Fellowes	901322
Lancôme	Fiberpatch	Fiberpatch	901894
Lancôme Men	FIC	FIC	902114
Lashem	FireBox	FireBox	902353
Laura Biagiotti	Flagpoint	Flagpoint	902690
Le Tan	Focus	Focus	903231
Locs Sunglasses	Fokus	Fokus	903259
Lolita Lempicka	For RAID-kontrollere	For RAID-kontrollere	903383
Luma Hairbrush	FPC	FPC	903395
MAC	FreeCom	FreeCom	903397
Macadamia Natural Oil	FreePen	FreePen	903527
Mama Mio	Fuji	Fuji	903703
Marc Jacobs	Fujitsu	Fujitsu	903716
Marvis	Fujitsu Siemens	Fujitsu Siemens	903849
Matis	Fujitsu Siemens-	Fujitsu Siemens-	904042
Matis Homme	G-Star	G-Star	904056
Matrix	Gainward	Gainward	904214
Matrix Men	garantiutvidelse	garantiutvidelse	904216
Max Factor	GFI	GFI	906447
Maxim	Gigabyte	Gigabyte	907315
Maya Water	GlacialTech	GlacialTech	908123
Maybelline	Global	Global	914076
MD Formulations	GlobalWin	GlobalWin	914150
Michael Kors	Goodway	Goodway	914294
Mio	Gravis	Gravis	914448
Mokki	Guillemot	Guillemot	914469
Möller's	Guru	Guru	914891
MOP	Handspring	Handspring	915109
MoroccanOil	Hansol	Hansol	915202
Moschino	harman/kardon	harman/kardon	921228
Motorola	Hauppauge!	Hauppauge!	921234
Natures Sunshine	Hercules	Hercules	921753
Neccin	Highpoint	Highpoint	921875
Nina Ricci	Hitachi	Hitachi	922085
Nino Cerruti	HP	HP	922154
Nisim	HP PDA	HP PDA	922164
Nisim Firma Shape	Hyundai	Hyundai	922567
NOKA	iAudio	iAudio	922652
Nutrilett	IBM	IBM	922815
Nvey Eco	Icemat	Icemat	922843
Nyx	Identicator	Identicator	922866
OBH Nordica	Imation	Imation	922923
Ole Henriksen	In-Win	In-Win	923042
Ombar	Industry	Industry	923084
One	Infinity	Infinity	923132
Opi	Infocus	Infocus	923881
ORAL-B	Intel	Intel	928930
Oribe	Intern	Intern	930714
Orofluido	Iomega	Iomega	931003
Oscar De La Renta	iRiver	iRiver	933501
Ottlite	J-S	J-S	934166
P20	Jasc	Jasc	936459
Paco Rabanne	JazPiper	JazPiper	937316
Paris Hilton	JBL	JBL	937544
Paul Mitchell	JMR	JMR	937566
Pearl Of Argan	JNC	JNC	946618
PHILIPS	JOS	JOS	952816
Pikasol	Jupiter	Jupiter	952893
Pin up balm	JVC	JVC	953010
Piz Buin	KA	KA	953017
Prada	Kabler, eksterne	Kabler, eksterne	953093
Proclé	Kabler, interne	Kabler, interne	953120
Pukka	Kaon	Kaon	953179
Pulsin	Keytronic	Keytronic	957931
Pureology	Kingston	Kingston	958976
Ralph Lauren	Kiss	Kiss	964443
Ray-Ban	Kjønnvendere	Kjønnvendere	970808
Real Techniques	Kodak	Kodak	973507
Redken	Komplett	Komplett	976155
Redken For Men	Komplett.se	Komplett.se	978124
Remington	Konica	Konica	979948
REN	Kort	Kort	982383
Renati	KryoTech	KryoTech	982591
Revlon	Kyocera	Kyocera	982959
Roberto Cavalli	Labelle	Labelle	986884
Rosebud	Labtec	Labtec	991389
Salvequick	Ladere/batterier	Ladere/batterier	993332
Sara Happ	Lanse	Lanse	995696
Sarah Jessica Parker	Lead	Lead	995704
SASSON for men	Lexar	Lexar	1000mg
Scholl	Lexmark	Lexmark	1104kløe
Schwarzkopf BC Bonacure	LG	LG	125ml
Schwarzkopf Blonde	LGS	LGS	15cmx1m
Schwarzkopf Natural & Easy	Likom	Likom	2106regulering 
Schwarzkopf Osis	Lite On	Lite On	2203klær
Schwarzkopf Silhouette	Logitech	Logitech	2601briller
Sebastian	Loke	Loke	3M
Sexy Hair	Luna	Luna	862136 til 
Shadow Tans	M-Tech	M-Tech	a creme
SHIFT	Macase	Macase	A derma
Shiseido	Macromedia	Macromedia	a krem
Shiseido Men	Matrox	Matrox	Ac3
Sif Jakobs	Maxtor	Maxtor	Ac3 Comfort 
Sisley	MB-Media	MB-Media	Accu-chek aviva
Sloggi	Mcafee	Mcafee	acetylsalisylsyre
Smilelab	Med management	Med management	aciglumin
Snö of Sweden	Mediaforte	Mediaforte	acne
Sny	Mediakonverter fiber	Mediakonverter fiber	aco
St. Tropez	Medion	Medion	ACO spotless
Sturgeon Sunglasses	Megadata	Megadata	acreme
Supernature	Memorex	Memorex	a-creme
Swarovski	Memorycard	Memorycard	active
Tangle Teezer	Merlin Gerin	Merlin Gerin	aderma
TEFAL	Mermaid	Mermaid	a-derma
The Balm	Metric	Metric	Aderma cream
The Raw Chocolate Company	Micro-star	Micro-star	aderma exomega
Thierry Mugler	Micron	Micron	aderma lotion
This manufacturer has no products	Microsoft	Microsoft	advant
Tig Bedhead For Men	Microsoft MOL	Microsoft MOL	afte
Tig S-Factor	Microtek	Microtek	akrem
Tigi Bedhead	Minnekort	Minnekort	a-krem
Tigi Bedhead For Men	Minolta	Minolta	alfacare
Tigi Catwalk	Miro	Miro	Alfacare 
Tigi Love, Peace & The Planet	MiTac	MiTac	alkohol
Tigi Pro	Mitsubishi	Mitsubishi	allevo
Tigi Reborn	Mitsumi	Mitsumi	allevo kick shake
Tigi Rockaholic	MMORE	MMORE	allevo vlcd
Tigi S-Factor	Mobility	Mobility	aloe
TIQ	Mosel	Mosel	aloe vera gel
TL Design	Motorola	Motorola	amme
Tommy Hilfiger	MP GIO	MP GIO	ammeinnlegg
Toni&Guy	MP3-tilbehør	MP3-tilbehør	ammeinnlegg merinoull
TOPCOM KIDZZZ	MQ	MQ	ammete naf
Travalo	MSI	MSI	amming
Triumph	Mustek	Mustek	ananas
Triwa	Mylex	Mylex	ånde
Valentino	Natcomp	Natcomp	animal soft
VEET	Neato	Neato	ansiktskrem
Vera Wang	NEC	NEC	Ansiktsmaske
Versace	NEOVO	NEOVO	anti
Vg Sunglasses	Nero	Nero	anti for
Vichy	NetComm	NetComm	antibac
Vichy Homme	Nextway	Nextway	antibac 
Vidal Sassoon	Nikon	Nikon	antibac dosepumpe
Virage Eyewear	NN	NN	antibac gel
Voluspa	Nokia	Nokia	Antibac overflate
Weleda	Norman	Norman	antiperspirant
Wella SP	NorthQ	NorthQ	apobase
Wella SP Just Men	Norton	Norton	apotek
Wilfa	Novell	Novell	apotekets
X-Loop Sunglasses	Novita	Novita	apotekets snøballer
Ysl	Nvidia	Nvidia	apparat
Yves Saint Laurent	Odin	Odin	appelsin
Abilica	Office	Office	apple
Accessories	Oki	Oki	aqualia thermal
Adonia Organics	Olivetti	Olivetti	aquaphor
Agadir Argan Oil	Olympus	Olympus	aquaporin
Agent Provocateur	Onboard Kit	Onboard Kit	arden
Alterna	Onstream	Onstream	arm
Amanprana	Opteron	Opteron	aspirin
Amargan	Opti	Opti	Astma
American Crew	Opticon	Opticon	atkins
Anna Sui	Orchid	Orchid	atocontr
Anny	Ortek	Ortek	atocontrol
Ardell	OSK	OSK	attends
Atkins	Palladine	Palladine	avene
Aviator Sunglasses	Palm	Palm	Avene 
Axellus	Palm tilbehør	Palm tilbehør	avene anti
Babor	Panasonic	Panasonic	Avene cleanance 
Babyliss	Panda	Panda	Avene hydrance
Bac Away	Parallell	Parallell	avene rich
bareMinerals	PC i delar	PC i delar	avene ther
Beauty Blender	PC Kit	PC Kit	Avent
Beauty Organizers	Pc-Ram	Pc-Ram	Avent brystpumpe
Becksöndergaard	Pentax	Pentax	avføring
Beond	Pentium 4	Pentium 4	avlesning
Billion Dollar Brows	Peyton	Peyton	b kompleks
Biohazard Sunglasses	Philips	Philips	b vitamin
Biosilk	Philips/Elo	Philips/Elo	b6
Biotherm	Pine	Pine	b8
Biotherm Homme	Pinnacle	Pinnacle	baby
Blax	Pioneer	Pioneer	babykit
Bliss	Plextor	Plextor	babyolje
Blush.no	PLUS	PLUS	bacimycin
Blush.no Gavekort	portreplikatorer	portreplikatorer	badefilm
BOSCH	Posso	Posso	badeolje
BRAUN	PowerBag	PowerBag	bag
Britney Spears	PowerColor	PowerColor	balanse
Bumble and bumble	PowerQuest	PowerQuest	Balsam
Burberry	Pretec	Pretec	bamboo eksemhanske
Burt's Bees	Princo	Princo	bamse
Cacharel	Promise	Promise	band
Calvin Klein	Prostore	Prostore	barber
CandyStore	Pulsar	Pulsar	barberblad
Carita	Push!	Push!	barberblader
Carolina Herrera	Q-Tec	Q-Tec	barberskum
Cg Sunglasses	QDI	QDI	barcelona
Chanel	QMS	QMS	Barcelona 
CHI	Quantum	Quantum	Barn
Chi Man	QuietPc	QuietPc	barne balsam
Chloé	Radix	Radix	barne kvalm
Choppers Sunglasses	Raritan	Raritan	barneplaster
Christian Dior	Ratac	Ratac	barriere
Christina Aquilera	Razer	Razer	basiron ac
Ciaté	Recom	Recom	Batteri
Cinecitta Pennollo	Ricoh	Ricoh	bayer
Clarins	Rimax	Rimax	bb
Clarins Men	Rio	Rio	belladot
Clean	Rittal	Rittal	ben
Clinique	Route 66	Route 66	benegast
Clinique Men	Roxio	Roxio	bertil
Cloud Nine	Safetycable	Safetycable	beta
Collett	Saitek	Saitek	big
Contigo	Samsung	Samsung	Bind
Crabtree & Evelyn	SandDisk	SandDisk	bio
Cupcake Organic	Sanyo	Sanyo	bio 
D:Fi	Sapphire	Sapphire	biocare
Daniel Wellington	Saturn	Saturn	biocvitamin
Darphin	Savestore	Savestore	biofinity
David Beckham	Scaleo	Scaleo	biomedics
Davidoff	Scanmagic	Scanmagic	biotene
Davines	Scansoft	Scansoft	Biotin
Deborah Lippmann	SCM	SCM	bite
Decleor	SCSI adapter	SCSI adapter	bivoks
Decléor	SCSI kabel ekstern	SCSI kabel ekstern	blåbær
DENTWAY	SCSI kabel intern	SCSI kabel intern	blader
Dermalogica	SCSI terminator	SCSI terminator	Bleie
Dg Sunglasses	SDRAM	SDRAM	bleier
Diesel	Seagate	Seagate	blemish
Disney	Sense	Sense	blemme
DKNY	Server Kit	Server Kit	blodsukker
Dolce & Gabbana	Shuttle	Shuttle	blodsukkerapparat
Donna Karan	Siemens	Siemens	Blodtrykk
Dr. Brandt	Sigma Designs	Sigma Designs	blodtrykk deler
Duo	Signature	Signature	Blodtrykksmåler
Durance	SiliTek	SiliTek	Boble bad
Ed Hardy	SimpleTech	SimpleTech	bodil
Elemis	SiPix	SiPix	body
Elemis - Time for men	Sky Hawk	Sky Hawk	body cream
Elizabeth Arden	Smart Buy	Smart Buy	boklampe
Emi-Jay	Smart Modular	Smart Modular	boks
English Tea Shop	SMC	SMC	bomull
EOS	Socket 423	Socket 423	boost
Escada	Socket 478	Socket 478	border
Essie	Socket 745/940	Socket 745/940	bra
Estée Lauder	Socket A/7/370/FCPGA	Socket A/7/370/FCPGA	brann gel
Exentri	Soft GSM	Soft GSM	braun
Fake Bake	Softline	Softline	break
Firm Shape	Sone 1	Sone 1	brente mandler
Flo	Sone 2	Sone 2	brille
Framesi	Sony	Sony	britt
French Connection	Sony Ericsson	Sony Ericsson	bronkyl
Fudge	SOS-Dram	SOS-Dram	bruk
Fusion Beauty	Spectek	Spectek	brulidine
Gerimax	Speed	Speed	brystbalsam
GHD	Spiffy	Spiffy	brystpumpe 
GHD Rettetang	Spire	Spire	B-Tonin
Gillette	Sunsway	Sunsway	buet
Giorgio Armani	Suntek	Suntek	burnaid
Givenchy	Supra	Supra	c vitamin
Glam Glow	Swissvoice	Swissvoice	cactuz
Glominerals	Switch 1000, unmanaged	Switch 1000, unmanaged	calcium
Goldwell	Symantec	Symantec	callus
GoToob	Symantec SVLP	Symantec SVLP	calma
Green & Black's	Symbios	Symbios	calogen
Gucci	T-Å	T-Å	canesten
Guerlain	TaiSol	TaiSol	canoderm
Gwen Stefani	Tandberg	Tandberg	carex
Halycon Days	Targa	Targa	cavilon
Hawaiian Tropic	Targus	Targus	cerat
Helena Rubinstein	Tcom	Tcom	ceridal
HEMPZ	Teac	Teac	cicaplast
Hermes	Technics	Technics	citrafleet
HH Simonsen	Techworks	Techworks	cleansing gel
Hot Tot	Tek	Tek	Clear blue
Hugo Boss	TekComm	TekComm	clearblue
I Am Pure	Tekram	Tekram	clinic action
id HAIR	Tektronicx	Tektronicx	clinic medium
Invisi Bobble	Tele 2	Tele 2	cliniderm
Issey Miyake	Teleline	Teleline	cliniderm deo
iWhite	Telenor	Telenor	clip
J. LO	TeleS	TeleS	coconut
J.LO	Tellus	Tellus	cold
Jan Thomas	Terminatorer, eksterne	Terminatorer, eksterne	cold cream
Jean Paul Gaultier	Terminatorer, interne	Terminatorer, interne	collagen
Jennifer Lopez	TerraTec	TerraTec	compeed
Jimmy Choo	Thermal Integration	Thermal Integration	Complete
John Masters Organics	Thermaltake	Thermaltake	complete 
Joico	Thor	Thor	concealer
Jonathan	ThrustMaster	ThrustMaster	concentrate
Jonathan products	Tilbehør	Tilbehør	contacts
Juicy Couture	Tilbehør, annet	Tilbehør, annet	contigo
Justin Bieber	Tin	Tin	contour
Kakalaqic	Tipro	Tipro	control
Kanebo	Toshiba	Toshiba	corega
Kari Traa	TP bulk	TP bulk	Corega neutral taste 40
Kenzo	TP patch, skjermet	TP patch, skjermet	corrector
Kérastase	TP patch, uskjermet	TP patch, uskjermet	corsodyl
Kérastase Homme	TP patch, uskjermet, krysset	TP patch, uskjermet, krysset	cosmica
Keune	TransiNor	TransiNor	cosmica 
Kms California	Traxdata	Traxdata	cosmica bod
Kolokrem	Triax	Triax	cosmica body
KÖNIG	Trimm	Trimm	cosmica face
Korres	Trust	Trust	cosmica fra
KOSS	TwinMOS	TwinMOS	cosmica men
L'Oréal Homme	Ubi Soft	Ubi Soft	cover
L'Oreal Paris	Umates	Umates	cover-dri
L'Oréal Playball	Undervannshus	Undervannshus	cream
L'Oréal Professionnel	UNICOL	UNICOL	creon
L'Oréal Serie Expert	United	United	cup
L'Oréal Serie Nature	Upgrade Kit	Upgrade Kit	curamed
L'Oréal TecniArt	Uppgraderingspaket	Uppgraderingspaket	curbicin
L`Occitane	US Robotics	US Robotics	c-vitamin
Label.m	USB	USB	d
Lacoste	Utimaco	Utimaco	D vitamin
Lady Gaga	Verbatim	Verbatim	d3
Lagerfeld	Veritas	Veritas	dactacort
Lancaster	Vesker	Vesker	dagkrem
Lancome	VIA	VIA	dagslinse
Lancôme	VideoLogic	VideoLogic	daktacort
Lancôme Men	Viewpoint	Viewpoint	decubal
Lashem	Viewsonic	Viewsonic	deep
Laura Biagiotti	Viewstar	Viewstar	define
Le Tan	Viewtop	Viewtop	definerende
Locs Sunglasses	Viking	Viking	dekadin
Lolita Lempicka	Visioneer	Visioneer	dekkstift
Luma Hairbrush	Volymrabatter	Volymrabatter	deler
MAC	Wacom	Wacom	deo
Macadamia Natural Oil	Western	Western	deodorant
Mama Mio	Wicom	Wicom	Dercos
Marc Jacobs	Widget	Widget	Derm
Marvis	Winbond	Winbond	derma
Matis	Winbound	Winbound	Dermablend
Matis Homme	Xerox	Xerox	dermato
Matrix	Xircom	Xircom	dermopurifyer
Matrix Men	Yamaha	Yamaha	Desinfeksjon
Max Factor	Yuan	Yuan	desinfeksjons 
Maxim	Zebra	Zebra	detox
Maya Water	Zquid	Zquid	Dexem
Maybelline	Zyxel	Zyxel	dexyl
Accessories	1000 Mbps	1000 Mbps	dha
Adonia Organics	3. Part	3. Part	diabetes
Agadir Argan Oil	3Com	3Com	diffuser
Agent Provocateur	3DFX COOL	3DFX COOL	diflucan
Alterna	3DFX Interactive	3DFX Interactive	Dildo
Amanprana	3DLabs	3DLabs	direct
Amargan	A-I	A-I	disney
American Crew	A4tech	A4tech	disney frozen
Anna Sui	Aashima	Aashima	dosepumpe
Anny	Abit	Abit	doseringspumpe
Ardell	Absolute	Absolute	Dosett
Atkins	AC Ryan	AC Ryan	dosett maxi
Aviator Sunglasses	Accton	Accton	dosett mini
Axellus	Acer	Acer	dosett pocket
Babor	Actima	Actima	d-pearl
Babyliss	Adaptec	Adaptec	dråper
Bac Away	Adaptere, eksterne	Adaptere, eksterne	drops
bareMinerals	Adaptere, intern/ekstern	Adaptere, intern/ekstern	Druesukker
Beauty Blender	Adaptere, interne	Adaptere, interne	dry touch
Beauty Organizers	Addonics	Addonics	duk
Becksöndergaard	Addtron	Addtron	dulcolax
Beond	ADi	ADi	dupha
Billion Dollar Brows	Adobe	Adobe	duphalac
Biohazard Sunglasses	ADS	ADS	duroferon
Biosilk	ADSL	ADSL	dusj
Biotherm	Advansys	Advansys	dusj såpe
Biotherm Homme	Afreey	Afreey	dusjolje
Blax	Agfa	Agfa	dusjoljer
Bliss	Ahead	Ahead	dvitamin
Blush.no	AipTek	AipTek	D-vitamin
Blush.no Gavekort	Aksesspunkt	Aksesspunkt	dyr
BOSCH	Aksesspunkt + Router	Aksesspunkt + Router	easytran
BRAUN	Alpine	Alpine	effaclar
Britney Spears	Altec Lansing	Altec Lansing	effaclar h
Bumble and bumble	AmbiCom	AmbiCom	eggløs
Burberry	AMD	AMD	eggløsning
Burt's Bees	AMI	AMI	eight
Cacharel	Anir	Anir	eight hour
Calvin Klein	Antec	Antec	eksem
CandyStore	AOC	AOC	eksemhanske
Carita	Aopen	Aopen	elekt
Carolina Herrera	Apacer	Apacer	elektrisk
Cg Sunglasses	Apollo	Apollo	elektrisk tannbørste
Chanel	Appian	Appian	eliza
CHI	Apple	Apple	elizabeth
Chi Man	Arbeidsstasjon	Arbeidsstasjon	elizabeth arden
Chloé	ARC	ARC	ellaone
Choppers Sunglasses	Archos	Archos	Emla
Christian Dior	Arcserv	Arcserv	Endetarm
Christina Aquilera	Artec	Artec	englespill
Ciaté	Ascom	Ascom	Eos
Cinecitta Pennollo	ASK	ASK	ereksjon
Clarins	Assistent	Assistent	Ereksjon 
Clarins Men	Astra	Astra	estelle
Clean	Asus	Asus	ester
Clinique	Asuscom	Asuscom	ester c
Clinique Men	ATC	ATC	euceri
Cloud Nine	Aten	Aten	eucerin
Collett	Athlon	Athlon	eucerin 
Contigo	Athlon MP	Athlon MP	eucerin even brighter
Crabtree & Evelyn	ATI	ATI	eucerin refill
Cupcake Organic	AVANTECH	AVANTECH	eucerin shower
D:Fi	Avendo	Avendo	eucerin spot
Daniel Wellington	Axis	Axis	eucerin sun
Darphin	B2B	B2B	eucerin volum
David Beckham	Bærbart	Bærbart	eukalyptus
Davidoff	Balder	Balder	eurax
Davines	batterier	batterier	evitamin
Deborah Lippmann	batteriladere	batteriladere	exomega
Decleor	Bcom	Bcom	expert
Decléor	Belkin	Belkin	extra 
DENTWAY	Best	Best	fanalgin
Dermalogica	Billion	Billion	Fanalgin 
Dg Sunglasses	Billionton	Billionton	fast
Diesel	Blitz, linser, adaptere	Blitz, linser, adaptere	Feber
Disney	Bluetooth	Bluetooth	feber måler
DKNY	Bogart	Bogart	fenazon
Dolce & Gabbana	Borland	Borland	ferromax
Donna Karan	Brother	Brother	Fertilitetsmonitor
Dr. Brandt	BTC	BTC	fett
Duo	Bundles	Bundles	filler
Durance	Canon	Canon	finest
Ed Hardy	Canopus	Canopus	Fisk
Elemis	Cardexpert	Cardexpert	fixclip
Elemis - Time for men	Casio	Casio	flasker
Elizabeth Arden	CD-kabinett	CD-kabinett	flåttfjerner
Emi-Jay	CD-R	CD-R	flex
English Tea Shop	CD-RW	CD-RW	flora
EOS	Celeron	Celeron	floradix
Escada	Centos	Centos	Flour
Essie	Certance	Certance	Fluor
Estée Lauder	CFI	CFI	fluor tablett
Exentri	Chaintech	Chaintech	fluorid
Fake Bake	Chenbro	Chenbro	fluorid naf
Firm Shape	Cherry	Cherry	fluoride
Flo	Chieftec	Chieftec	Fluorskyll
Framesi	Cisco	Cisco	flux
French Connection	CNet	CNet	flux 500ml
Fudge	Coax	Coax	flux fluorskyll 500ml
Fusion Beauty	Commbridge	Commbridge	flux fluorskyll 500ml 0,2 
Gerimax	ComOne	ComOne	flytende plaster
GHD	Compaq	Compaq	folat
GHD Rettetang	Confidence	Confidence	folsyre
Gillette	Consept	Consept	foot
Giorgio Armani	Cooler Master	Cooler Master	for
Givenchy	Corel	Corel	Fordøyelse
Glam Glow	Corsair	Corsair	formulation
Glominerals	Cowon	Cowon	Førstehjelp
Goldwell	Creative	Creative	fot
GoToob	Crucial	Crucial	fot massasje
Green & Black's	CyberHome	CyberHome	fotbad
Gucci	CyberLink	CyberLink	fotfil
Guerlain	D-link	D-link	fotkrem
Gwen Stefani	Dantz	Dantz	fotseng
Halycon Days	DataExpert	DataExpert	fotsopp
Hawaiian Tropic	Datafab	Datafab	freest
Helena Rubinstein	Datapower	Datapower	freestyle
HEMPZ	Datawrite	Datawrite	freshmint
Hermes	Davis	Davis	fresubin
HH Simonsen	Daytona	Daytona	fribol
Hot Tot	Destiny	Destiny	frisk pust
Hugo Boss	Dexxa	Dexxa	Frost
I Am Pure	Diamond	Diamond	frozen
id HAIR	Digital	Digital	frukt
Invisi Bobble	Disc Repair Pro	Disc Repair Pro	frukt og fiber
Issey Miyake	DiscDreamer	DiscDreamer	fuktighetskrem
iWhite	Diskkabinett	Diskkabinett	Fungoral
J. LO	Disneyblast	Disneyblast	fusion
J.LO	Diverse	Diverse	futuro
Jan Thomas	Dockingstasjon, USB-kabel	Dockingstasjon, USB-kabel	gave
Jean Paul Gaultier	Doro	Doro	gavepakke
Jennifer Lopez	Duo Port	Duo Port	gavepakning
Jimmy Choo	Duron	Duron	gaver
John Masters Organics	DV-tape	DV-tape	gavesett
Joico	DVD	DVD	gaviscon
Jonathan	Dymo	Dymo	gc
Jonathan products	Dynalink	Dynalink	gel
Juicy Couture	Dynamic	Dynamic	gele
Justin Bieber	Eagle	Eagle	gem
Kakalaqic	Eicon Diva	Eicon Diva	gengigel
Kanebo	Eizo	Eizo	gerimax
Kari Traa	EKL	EKL	gevita
Kenzo	Ekstern	Ekstern	gevita blåbær
Kérastase	Electronic Arts	Electronic Arts	gevita jern
Kérastase Homme	ELMA	ELMA	gilette
Keune	Elsa	Elsa	Gilette fusion
Kms California	Eltax	Eltax	gillett
Kolokrem	Eltek	Eltek	gillette
KÖNIG	Eltron	Eltron	Ginseng
Korres	eMagic	eMagic	Glid
KOSS	Emine	Emine	Glide
L'Oréal Homme	Enermax	Enermax	glidemiddel
L'Oreal Paris	Enhance	Enhance	glucogel
L'Oréal Playball	Enkel (uten management)	Enkel (uten management)	glukose
L'Oréal Professionnel	Enlight	Enlight	gnagsår
L'Oréal Serie Expert	Eon	Eon	Godis
L'Oréal Serie Nature	EPoX	EPoX	godteri
L'Oréal TecniArt	Epson	Epson	grace cole
L`Occitane	Ergonomiske Mus	Ergonomiske Mus	grande
Label.m	Ergotron	Ergotron	granulat
Lacoste	Eurocase	Eurocase	gravid
Lady Gaga	Evolis	Evolis	gravid 
Lagerfeld	Evoluent	Evoluent	graviditets
Lancaster	F-Secure	F-Secure	graviditetstest
Lancome	Fellowes	Fellowes	greta
Lancôme	Fiberpatch	Fiberpatch	gripetang
Lancôme Men	FIC	FIC	Grøt
Lashem	FireBox	FireBox	gum
Laura Biagiotti	Flagpoint	Flagpoint	gum paroex
Le Tan	Focus	Focus	Gum softpick
Locs Sunglasses	Fokus	Fokus	gutt
Lolita Lempicka	For RAID-kontrollere	For RAID-kontrollere	hæl
Luma Hairbrush	FPC	FPC	halls
MAC	FreeCom	FreeCom	hals
Macadamia Natural Oil	FreePen	FreePen	hals ekstra
Mama Mio	Fuji	Fuji	halspastiller
Marc Jacobs	Fujitsu	Fujitsu	hamburgerte
Marvis	Fujitsu Siemens	Fujitsu Siemens	hand
Matis	Fujitsu Siemens-	Fujitsu Siemens-	hånd støtte
Matis Homme	G-Star	G-Star	hånd varme
Matrix	Gainward	Gainward	håndkrem
Matrix Men	garantiutvidelse	garantiutvidelse	hansa
Max Factor	GFI	GFI	hansaplast
Maxim	Gigabyte	Gigabyte	hanske
Maya Water	GlacialTech	GlacialTech	hansker
Maybelline	Global	Global	happy
MD Formulations	GlobalWin	GlobalWin	happy ears
Michael Kors	Goodway	Goodway	hårbørste
Mio	Gravis	Gravis	Hard  hud fot
Mokki	Guillemot	Guillemot	hårkur
Möller's	Guru	Guru	hårtap
MOP	Handspring	Handspring	havrehjerter
MoroccanOil	Hansol	Hansol	heaton
Moschino	harman/kardon	harman/kardon	hel
Motorola	Hauppauge!	Hauppauge!	helse
Natures Sunshine	Hercules	Hercules	hemofer
Neccin	Highpoint	Highpoint	hemoroide
Nina Ricci	Hitachi	Hitachi	hemoroider
Nino Cerruti	HP	HP	hermal 
Nisim	HP PDA	HP PDA	herpes
Nisim Firma Shape	Hyundai	Hyundai	Herre
NOKA	iAudio	iAudio	hibitane
Nutrilett	IBM	IBM	hjerne
Nvey Eco	Icemat	Icemat	hodepine
Nyx	Identicator	Identicator	homeopatmidler
OBH Nordica	Imation	Imation	honning
Ole Henriksen	In-Win	In-Win	host
Ombar	Industry	Industry	hoste
One	Infinity	Infinity	hostesaft
Opi	Infocus	Infocus	hostesaft for barn
ORAL-B	Intel	Intel	hosthals
Oribe	Intern	Intern	hot and cool
Orofluido	Iomega	Iomega	hot cool
Oscar De La Renta	iRiver	iRiver	hour
Ottlite	J-S	J-S	hovne ben
P20	Jasc	Jasc	hud sopp
Paco Rabanne	JazPiper	JazPiper	hudkrem
Paris Hilton	JBL	JBL	Hudorm
Paul Mitchell	JMR	JMR	hund
Pearl Of Argan	JNC	JNC	hval
PHILIPS	JOS	JOS	hydrance
Pikasol	Jupiter	Jupiter	hydreane
Pin up balm	JVC	JVC	hydrokortison
Piz Buin	KA	KA	Hypericum
Prada	Kabler, eksterne	Kabler, eksterne	i white
Proclé	Kabler, interne	Kabler, interne	ibumetin
Pukka	Kaon	Kaon	ibuprofen
Pulsin	Keytronic	Keytronic	ibux
Pureology	Kingston	Kingston	ID
Ralph Lauren	Kiss	Kiss	ideal soleil ansikt
Ray-Ban	Kjønnvendere	Kjønnvendere	idealia
Real Techniques	Kodak	Kodak	idoform
Redken	Komplett	Komplett	Imodium
Redken For Men	Komplett.se	Komplett.se	imogas
Remington	Konica	Konica	impress negl text appeal
REN	Kort	Kort	inch
Renati	KryoTech	KryoTech	Ingemar
Revlon	Kyocera	Kyocera	ingrid
Roberto Cavalli	Labelle	Labelle	Inhalator
Rosebud	Labtec	Labtec	injeksjon
Salvequick	Ladere/batterier	Ladere/batterier	Inotyol
Sara Happ	Lanse	Lanse	intense
Sarah Jessica Parker	Lead	Lead	intensive
SASSON for men	Lexar	Lexar	invita
Scholl	Lexmark	Lexmark	ispose
Schwarzkopf BC Bonacure	LG	LG	isposer
Schwarzkopf Blonde	LGS	LGS	jern
Schwarzkopf Natural & Easy	Likom	Likom	jobs
Schwarzkopf Osis	Lite On	Lite On	jobst
Schwarzkopf Silhouette	Logitech	Logitech	jobst man
Sebastian	Loke	Loke	jobst men
Sexy Hair	Luna	Luna	jobst opaque
Shadow Tans	M-Tech	M-Tech	Jobst Sport
SHIFT	Macase	Macase	Jobst Sport knestrømpe 
Shiseido	Macromedia	Macromedia	Jobst Sport knestrømpe grå
Shiseido Men	Matrox	Matrox	jobst travel
Sif Jakobs	Maxtor	Maxtor	Jod
Sisley	MB-Media	MB-Media	joh
Sloggi	Mcafee	Mcafee	Jojobaolje
Smilelab	Med management	Med management	jordan
Snö of Sweden	Mediaforte	Mediaforte	jordan clinic
Sny	Mediakonverter fiber	Mediakonverter fiber	jordan miracle
St. Tropez	Medion	Medion	jordan refill
Sturgeon Sunglasses	Megadata	Megadata	jordan tanntråd
Supernature	Memorex	Memorex	jordbær
Swarovski	Memorycard	Memorycard	Jul
Tangle Teezer	Merlin Gerin	Merlin Gerin	julegave
TEFAL	Mermaid	Mermaid	julegaver
The Balm	Metric	Metric	julekaffe
The Raw Chocolate Company	Micro-star	Micro-star	juleprodukter
Thierry Mugler	Micron	Micron	jungelbrøl
This manufacturer has no products	Microsoft	Microsoft	k
Tig Bedhead For Men	Microsoft MOL	Microsoft MOL	k2
Tig S-Factor	Microtek	Microtek	Kaffe
Tigi Bedhead	Minnekort	Minnekort	kalii
Tigi Bedhead For Men	Minolta	Minolta	kaliumpermanganat
Tigi Catwalk	Miro	Miro	kalsium
Tigi Love, Peace & The Planet	MiTac	MiTac	kamfer
Tigi Pro	Mitsubishi	Mitsubishi	Kamferdråper
Tigi Reborn	Mitsumi	Mitsumi	kanyle
Tigi Rockaholic	MMORE	MMORE	kanyle 
Tigi S-Factor	Mobility	Mobility	kapsler
TIQ	Mosel	Mosel	karamell
TL Design	Motorola	Motorola	Karbamid
Tommy Hilfiger	MP GIO	MP GIO	karbamid 20 
Toni&Guy	MP3-tilbehør	MP3-tilbehør	karbo
TOPCOM KIDZZZ	MQ	MQ	Kateter
Travalo	MSI	MSI	kd3
Triumph	Mustek	Mustek	kerium
Triwa	Mylex	Mylex	kestine
Valentino	Natcomp	Natcomp	keto
VEET	Neato	Neato	ketoner
Vera Wang	NEC	NEC	kid
Versace	NEOVO	NEOVO	kimovi
Vg Sunglasses	Nero	Nero	kimovi crea
Vichy	NetComm	NetComm	Kladd
Vichy Homme	Nextway	Nextway	klamydia
Vidal Sassoon	Nikon	Nikon	kleenex
Virage Eyewear	NN	NN	klinion
Voluspa	Nokia	Nokia	klipper
Weleda	Norman	Norman	klistremerke
Wella SP	NorthQ	NorthQ	kløe
Wella SP Just Men	Norton	Norton	klorhexidin
Wilfa	Novell	Novell	Klorhexidin 
X-Loop Sunglasses	Novita	Novita	klyster
Ysl	Nvidia	Nvidia	klyx
Yves Saint Laurent	Odin	Odin	koffein
Abilica	Office	Office	Koffein 
Accessories	Oki	Oki	kolesterol
Adonia Organics	Olivetti	Olivetti	kolestrol
Agadir Argan Oil	Olympus	Olympus	kompresjon
Agent Provocateur	Onboard Kit	Onboard Kit	kompresjonsbind
Alterna	Onstream	Onstream	kompress
Amanprana	Opteron	Opteron	Kon
Amargan	Opti	Opti	kondom
American Crew	Opticon	Opticon	kondomer
Anna Sui	Orchid	Orchid	kongerøkelse
Anny	Ortek	Ortek	Kongerøkelse 
Ardell	OSK	OSK	kontaktlinser
Atkins	Palladine	Palladine	kopp
Aviator Sunglasses	Palm	Palm	kopper
Axellus	Palm tilbehør	Palm tilbehør	Kortison
Babor	Panasonic	Panasonic	kost
Babyliss	Panda	Panda	kostilskudd
Bac Away	Parallell	Parallell	kosttilskudd
bareMinerals	PC i delar	PC i delar	kragerø
Beauty Blender	PC Kit	PC Kit	Krem
Beauty Organizers	Pc-Ram	Pc-Ram	Krem menn
Becksöndergaard	Pentax	Pentax	krom
Beond	Pentium 4	Pentium 4	kroniske smerter
Billion Dollar Brows	Peyton	Peyton	kroppspleie
Biohazard Sunglasses	Philips	Philips	krydder
Biosilk	Philips/Elo	Philips/Elo	krydderte
Biotherm	Pine	Pine	krykke
Biotherm Homme	Pinnacle	Pinnacle	Kuldekrem
Blax	Pioneer	Pioneer	kusmi
Bliss	Plextor	Plextor	kvalm
Blush.no	PLUS	PLUS	kvise
Blush.no Gavekort	portreplikatorer	portreplikatorer	L300
BOSCH	Posso	Posso	la
BRAUN	PowerBag	PowerBag	La roche
Britney Spears	PowerColor	PowerColor	la roche posay
Bumble and bumble	PowerQuest	PowerQuest	la roche-posay
Burberry	Pretec	Pretec	La Roche-Posay 
Burt's Bees	Princo	Princo	La Roche-Posay anthelios ac solkrem lett
Cacharel	Promise	Promise	la roche-posay effaclar
Calvin Klein	Prostore	Prostore	la roche-posay spf
CandyStore	Pulsar	Pulsar	la roche
Carita	Push!	Push!	lacta
Carolina Herrera	Q-Tec	Q-Tec	lactacyd
Cg Sunglasses	QDI	QDI	lactal
Chanel	QMS	QMS	lactrase
CHI	Quantum	Quantum	Lactrase 
Chi Man	QuietPc	QuietPc	laken
Chloé	Radix	Radix	lakris
Choppers Sunglasses	Raritan	Raritan	lakrismandle
Christian Dior	Ratac	Ratac	lakserolje
Christina Aquilera	Razer	Razer	Laktose
Ciaté	Recom	Recom	lamisil
Cinecitta Pennollo	Ricoh	Ricoh	lancets
Clarins	Rimax	Rimax	lansett
Clarins Men	Rio	Rio	la-roche
Clean	Rittal	Rittal	latex
Clinique	Route 66	Route 66	laxabon
Clinique Men	Roxio	Roxio	laxoberal
Cloud Nine	Safetycable	Safetycable	ledd
Collett	Saitek	Saitek	leddsmerter
Contigo	Samsung	Samsung	leker
Crabtree & Evelyn	SandDisk	SandDisk	leppe
Cupcake Organic	Sanyo	Sanyo	lepper
D:Fi	Sapphire	Sapphire	lett
Daniel Wellington	Saturn	Saturn	libero
Darphin	Savestore	Savestore	libero 6
David Beckham	Scaleo	Scaleo	libresse
Davidoff	Scanmagic	Scanmagic	Libresse 
Davines	Scansoft	Scansoft	Life
Deborah Lippmann	SCM	SCM	life care
Decleor	SCSI adapter	SCSI adapter	lifeline
Decléor	SCSI kabel ekstern	SCSI kabel ekstern	lifeline care
DENTWAY	SCSI kabel intern	SCSI kabel intern	light
Dermalogica	SCSI terminator	SCSI terminator	liktorn
Dg Sunglasses	SDRAM	SDRAM	lilla
Diesel	Seagate	Seagate	lini
Disney	Sense	Sense	linicin
DKNY	Server Kit	Server Kit	liniment
Dolce & Gabbana	Shuttle	Shuttle	linse
Donna Karan	Siemens	Siemens	linse -0,25
Dr. Brandt	Sigma Designs	Sigma Designs	linseprodukter
Duo	Signature	Signature	linser
Durance	SiliTek	SiliTek	Linsevæske
Ed Hardy	SimpleTech	SimpleTech	lip
Elemis	SiPix	SiPix	lip balm
Elemis - Time for men	Sky Hawk	Sky Hawk	lip olje
Elizabeth Arden	Smart Buy	Smart Buy	lipid
Emi-Jay	Smart Modular	Smart Modular	lipikar
English Tea Shop	SMC	SMC	listerine
EOS	Socket 423	Socket 423	livostin
Escada	Socket 478	Socket 478	locobase
Essie	Socket 745/940	Socket 745/940	Locobase 
Estée Lauder	Socket A/7/370/FCPGA	Socket A/7/370/FCPGA	locobase repair
Exentri	Soft GSM	Soft GSM	løpe
Fake Bake	Softline	Softline	loperamid
Firm Shape	Sone 1	Sone 1	loratadin
Flo	Sone 2	Sone 2	lpl
Framesi	Sony	Sony	lrp
French Connection	Sony Ericsson	Sony Ericsson	lrp effa
Fudge	SOS-Dram	SOS-Dram	lrp foundation
Fusion Beauty	Spectek	Spectek	lrp mascara
Gerimax	Speed	Speed	lrp toleriane teint
GHD	Spiffy	Spiffy	lue
GHD Rettetang	Spire	Spire	lypsyl
Gillette	Sunsway	Sunsway	lys
Giorgio Armani	Suntek	Suntek	mabs
Givenchy	Supra	Supra	mabs 
Glam Glow	Swissvoice	Swissvoice	mabs active
Glominerals	Switch 1000, unmanaged	Switch 1000, unmanaged	mabs active 
Goldwell	Symantec	Symantec	mabs active wool
GoToob	Symantec SVLP	Symantec SVLP	mabs aktive 
Green & Black's	Symbios	Symbios	mabs albue
Gucci	T-Å	T-Å	mabs beskyttelse fot
Guerlain	TaiSol	TaiSol	mabs bomull
Gwen Stefani	Tandberg	Tandberg	mabs fotfil
Halycon Days	Targa	Targa	mabs fotseng
Hawaiian Tropic	Targus	Targus	mabs hælin
Helena Rubinstein	Tcom	Tcom	mabs håndledd
HEMPZ	Teac	Teac	mabs kne
Hermes	Technics	Technics	mabs knestøtte
HH Simonsen	Techworks	Techworks	mabs knestrømpe
Hot Tot	Tek	Tek	mabs knestropp
Hugo Boss	TekComm	TekComm	mabs man kompre
I Am Pure	Tekram	Tekram	mabs menn
id HAIR	Tektronicx	Tektronicx	mabs nylon
Invisi Bobble	Tele 2	Tele 2	mabs rygg
Issey Miyake	Teleline	Teleline	mabs strømpebukse
iWhite	Telenor	Telenor	mabs tå
J. LO	TeleS	TeleS	mabs tubif
J.LO	Tellus	Tellus	mabs work
Jan Thomas	Terminatorer, eksterne	Terminatorer, eksterne	magen
Jean Paul Gaultier	Terminatorer, interne	Terminatorer, interne	magesyre
Jennifer Lopez	TerraTec	TerraTec	Magnesium
Jimmy Choo	Thermal Integration	Thermal Integration	Magnesium 
John Masters Organics	Thermaltake	Thermaltake	makeup
Joico	Thor	Thor	mam
Jonathan	ThrustMaster	ThrustMaster	mam bite
Jonathan products	Tilbehør	Tilbehør	mama
Juicy Couture	Tilbehør, annet	Tilbehør, annet	mamma
Justin Bieber	Tin	Tin	manart
Kakalaqic	Tipro	Tipro	mandelolje
Kanebo	Toshiba	Toshiba	mandler
Kari Traa	TP bulk	TP bulk	måneder
Kenzo	TP patch, skjermet	TP patch, skjermet	Månedslinser
Kérastase	TP patch, uskjermet	TP patch, uskjermet	mann
Kérastase Homme	TP patch, uskjermet, krysset	TP patch, uskjermet, krysset	manuell
Keune	TransiNor	TransiNor	marsipan
Kms California	Traxdata	Traxdata	mascara
Kolokrem	Triax	Triax	maske
KÖNIG	Trimm	Trimm	massage
Korres	Trust	Trust	massasje
KOSS	TwinMOS	TwinMOS	maxin
L'Oréal Homme	Ubi Soft	Ubi Soft	med
L'Oreal Paris	Umates	Umates	medela
L'Oréal Playball	Undervannshus	Undervannshus	medela  
L'Oréal Professionnel	UNICOL	UNICOL	medela calma
L'Oréal Serie Expert	United	United	medela swing
L'Oréal Serie Nature	Upgrade Kit	Upgrade Kit	medisin
L'Oréal TecniArt	Uppgraderingspaket	Uppgraderingspaket	medisinert
L`Occitane	US Robotics	US Robotics	medium
Label.m	USB	USB	melolin
Lacoste	Utimaco	Utimaco	melolin 
Lady Gaga	Verbatim	Verbatim	men
Lagerfeld	Veritas	Veritas	mens
Lancaster	Vesker	Vesker	Mens kopp
Lancome	VIA	VIA	menth
Lancôme	VideoLogic	VideoLogic	menthol
Lancôme Men	Viewpoint	Viewpoint	mentholatu
Lashem	Viewsonic	Viewsonic	mentholatum
Laura Biagiotti	Viewstar	Viewstar	mentol
Le Tan	Viewtop	Viewtop	mepiform
Locs Sunglasses	Viking	Viking	mepilex
Lolita Lempicka	Visioneer	Visioneer	mepore pro
Luma Hairbrush	Volymrabatter	Volymrabatter	mesoft
MAC	Wacom	Wacom	Microlax
Macadamia Natural Oil	Western	Western	microlife
Mama Mio	Wicom	Wicom	midi
Marc Jacobs	Widget	Widget	miel
Marvis	Winbond	Winbond	mildison
Matis	Winbound	Winbound	Min side
Matis Homme	Xerox	Xerox	mini
Matrix	Xircom	Xircom	mini 
Matrix Men	Yamaha	Yamaha	miniderm
Max Factor	Yuan	Yuan	minifom
Maxim	Zebra	Zebra	mint
Maya Water	Zquid	Zquid	moisturizing
Maybelline	Zyxel	Zyxel	mokka
Accessories	1000 Mbps	1000 Mbps	mokkabønner
Adonia Organics	3. Part	3. Part	mokki
Agadir Argan Oil	3Com	3Com	mokki 2-4
Agent Provocateur	3DFX COOL	3DFX COOL	mokki barn
Alterna	3DFX Interactive	3DFX Interactive	mokki solbrille
Amanprana	3DLabs	3DLabs	Mokki solbrille baby
Amargan	A-I	A-I	møller
American Crew	A4tech	A4tech	møllers
Anna Sui	Aashima	Aashima	mønster
Anny	Abit	Abit	Morsmelk
Ardell	Absolute	Absolute	Movicol
Atkins	AC Ryan	AC Ryan	multi vitamin
Aviator Sunglasses	Accton	Accton	multivitamin
Axellus	Acer	Acer	munnbind
Babor	Actima	Actima	munns
Babyliss	Adaptec	Adaptec	munnsår
Bac Away	Adaptere, eksterne	Adaptere, eksterne	munnskyll
bareMinerals	Adaptere, intern/ekstern	Adaptere, intern/ekstern	munntørrhet
Beauty Blender	Adaptere, interne	Adaptere, interne	muskel
Beauty Organizers	Addonics	Addonics	Muskelsmerter
Becksöndergaard	Addtron	Addtron	mygg
Beond	ADi	ADi	mylan
Billion Dollar Brows	Adobe	Adobe	myrra
Biohazard Sunglasses	ADS	ADS	næringsdrikker
Biosilk	ADSL	ADSL	naf
Biotherm	Advansys	Advansys	Nail
Biotherm Homme	Afreey	Afreey	nakke
Blax	Agfa	Agfa	nakkepute
Bliss	Ahead	Ahead	nalox
Blush.no	AipTek	AipTek	nan
Blush.no Gavekort	Aksesspunkt	Aksesspunkt	naprox
BOSCH	Aksesspunkt + Router	Aksesspunkt + Router	naproxen
BRAUN	Alpine	Alpine	narresmokk
Britney Spears	Altec Lansing	Altec Lansing	nasacort
Bumble and bumble	AmbiCom	AmbiCom	nasal
Burberry	AMD	AMD	nasonex
Burt's Bees	AMI	AMI	natriumklorid
Cacharel	Anir	Anir	natron
Calvin Klein	Antec	Antec	nattkrem
CandyStore	AOC	AOC	natural
Carita	Aopen	Aopen	nazamer
Carolina Herrera	Apacer	Apacer	nbg
Cg Sunglasses	Apollo	Apollo	nbg24
Chanel	Appian	Appian	negl
CHI	Apple	Apple	neglebørste
Chi Man	Arbeidsstasjon	Arbeidsstasjon	neglefil
Chloé	ARC	ARC	negleklipper
Choppers Sunglasses	Archos	Archos	neglelakk
Christian Dior	Arcserv	Arcserv	neglesaks
Christina Aquilera	Artec	Artec	neglesopp
Ciaté	Ascom	Ascom	neglsopp
Cinecitta Pennollo	ASK	ASK	neova
Clarins	Assistent	Assistent	neovadiol
Clarins Men	Astra	Astra	nese
Clean	Asus	Asus	nese olje 
Clinique	Asuscom	Asuscom	nesedråper
Clinique Men	ATC	ATC	neseolje
Cloud Nine	Aten	Aten	nesespray
Collett	Athlon	Athlon	neutral
Contigo	Athlon MP	Athlon MP	nice
Crabtree & Evelyn	ATI	ATI	nicorette
Cupcake Organic	AVANTECH	AVANTECH	Nicotinell 2 mg
D:Fi	Avendo	Avendo	Niferex
Daniel Wellington	Axis	Axis	nikotin
Darphin	B2B	B2B	nisim
David Beckham	Bærbart	Bærbart	nitril
Davidoff	Balder	Balder	nødprevensjon
Davines	batterier	batterier	noraid
Deborah Lippmann	batteriladere	batteriladere	norgesplaster
Decleor	Bcom	Bcom	norlevo
Decléor	Belkin	Belkin	normaderm
DENTWAY	Best	Best	noskapin
Dermalogica	Billion	Billion	novaluzid
Dg Sunglasses	Billionton	Billionton	nozo
Diesel	Blitz, linser, adaptere	Blitz, linser, adaptere	Nutramigen
Disney	Bluetooth	Bluetooth	nutridrink
DKNY	Bogart	Bogart	nutrifriend
Dolce & Gabbana	Borland	Borland	nutrini
Donna Karan	Brother	Brother	NUTRINIKID
Dr. Brandt	BTC	BTC	nuxe
Duo	Bundles	Bundles	nyco
Durance	Canon	Canon	nyco plus
Ed Hardy	Canopus	Canopus	nycodent
Elemis	Cardexpert	Cardexpert	nycodent 
Elemis - Time for men	Casio	Casio	nycodent frisk
Elizabeth Arden	CD-kabinett	CD-kabinett	nycoklar
Emi-Jay	CD-R	CD-R	nycoplu
English Tea Shop	CD-RW	CD-RW	nycoplus
EOS	Celeron	Celeron	nycoplus gravid
Escada	Centos	Centos	Nycoplus kalsium med vitamin 
Essie	Certance	Certance	Nycoplus Omega-3 basic
Estée Lauder	CFI	CFI	Nycoplus selolje 1000mg kapsler
Exentri	Chaintech	Chaintech	nycopro
Fake Bake	Chenbro	Chenbro	nycopro daglig
Firm Shape	Cherry	Cherry	ob
Flo	Chieftec	Chieftec	ogx
Framesi	Cisco	Cisco	oil
French Connection	CNet	CNet	ølgjær
Fudge	Coax	Coax	oljeglyserol
Fusion Beauty	Commbridge	Commbridge	oljer
Gerimax	ComOne	ComOne	Omega
GHD	Compaq	Compaq	omega 3
GHD Rettetang	Confidence	Confidence	omega 3 for barn
Gillette	Consept	Consept	Omega3
Giorgio Armani	Cooler Master	Cooler Master	omgangssyke
Givenchy	Corel	Corel	opal
Glam Glow	Corsair	Corsair	opiat
Glominerals	Cowon	Cowon	optimale
Goldwell	Creative	Creative	oral b
GoToob	Crucial	Crucial	oral-b
Green & Black's	CyberHome	CyberHome	øre
Gucci	CyberLink	CyberLink	ørekuler
Guerlain	D-link	D-link	øreplugger
Gwen Stefani	Dantz	Dantz	Ørepropper
Halycon Days	DataExpert	DataExpert	ørerens
Hawaiian Tropic	Datafab	Datafab	ørete
Helena Rubinstein	Datapower	Datapower	øretermometer
HEMPZ	Datawrite	Datawrite	origin
Hermes	Davis	Davis	original
HH Simonsen	Daytona	Daytona	orthana
Hot Tot	Destiny	Destiny	orthodontic wax
Hugo Boss	Dexxa	Dexxa	osett
I Am Pure	Diamond	Diamond	osteløpe
id HAIR	Digital	Digital	otribaby
Invisi Bobble	Disc Repair Pro	Disc Repair Pro	Otrivin
Issey Miyake	DiscDreamer	DiscDreamer	otrivin comp
iWhite	Diskkabinett	Diskkabinett	ovester
J. LO	Disneyblast	Disneyblast	øye
J.LO	Diverse	Diverse	øyebryn
Jan Thomas	Dockingstasjon, USB-kabel	Dockingstasjon, USB-kabel	Øyedråper
Jean Paul Gaultier	Doro	Doro	øyekrem
Jennifer Lopez	Duo Port	Duo Port	øyelapper
Jimmy Choo	Duron	Duron	pads
John Masters Organics	DV-tape	DV-tape	pampering
Joico	DVD	DVD	panne
Jonathan	Dymo	Dymo	Pannetermometer
Jonathan products	Dynalink	Dynalink	panodil
Juicy Couture	Dynamic	Dynamic	panodil zapp
Justin Bieber	Eagle	Eagle	Pants
Kakalaqic	Eicon Diva	Eicon Diva	parac
Kanebo	Eizo	Eizo	parace
Kari Traa	EKL	EKL	paracet
Kenzo	Ekstern	Ekstern	paracet 
Kérastase	Electronic Arts	Electronic Arts	paracet smeltetablett
Kérastase Homme	ELMA	ELMA	paracet¨
Keune	Elsa	Elsa	paracetamol
Kms California	Eltax	Eltax	paracetduo
Kolokrem	Eltek	Eltek	parafin
KÖNIG	Eltron	Eltron	paralen
Korres	eMagic	eMagic	paroex
KOSS	Emine	Emine	peak flow
L'Oréal Homme	Enermax	Enermax	peeling
L'Oreal Paris	Enhance	Enhance	pefmåler
L'Oréal Playball	Enkel (uten management)	Enkel (uten management)	Penis
L'Oréal Professionnel	Enlight	Enlight	Penis pumpe
L'Oréal Serie Expert	Eon	Eon	Penispumpe
L'Oréal Serie Nature	EPoX	EPoX	Penispumpe 
L'Oréal TecniArt	Epson	Epson	pep
L`Occitane	Ergonomiske Mus	Ergonomiske Mus	peppermint
Label.m	Ergotron	Ergotron	peppermynteolje
Lacoste	Eurocase	Eurocase	personal
Lady Gaga	Evolis	Evolis	philips
Lagerfeld	Evoluent	Evoluent	physiological
Lancaster	F-Secure	F-Secure	physiomer
Lancome	Fellowes	Fellowes	Picoprep
Lancôme	Fiberpatch	Fiberpatch	pille
Lancôme Men	FIC	FIC	pimpinelle
Lashem	FireBox	FireBox	pinex
Laura Biagiotti	Flagpoint	Flagpoint	plaster
Le Tan	Focus	Focus	plasterfjerner
Locs Sunglasses	Fokus	Fokus	play
Lolita Lempicka	For RAID-kontrollere	For RAID-kontrollere	pleiende
Luma Hairbrush	FPC	FPC	Plugg
MAC	FreeCom	FreeCom	pollen
Macadamia Natural Oil	FreePen	FreePen	Prevensjon
Mama Mio	Fuji	Fuji	priorin
Marc Jacobs	Fujitsu	Fujitsu	Priorin 
Marvis	Fujitsu Siemens	Fujitsu Siemens	pro
Matis	Fujitsu Siemens-	Fujitsu Siemens-	probiotisk
Matis Homme	G-Star	G-Star	profast
Matrix	Gainward	Gainward	profil kondom
Matrix Men	garantiutvidelse	garantiutvidelse	prosta
Max Factor	GFI	GFI	prostata
Maxim	Gigabyte	Gigabyte	protein
Maya Water	GlacialTech	GlacialTech	protese
Maybelline	Global	Global	pudder
MD Formulations	GlobalWin	GlobalWin	pulver
Michael Kors	Goodway	Goodway	pumpe
Mio	Gravis	Gravis	pure
Mokki	Guillemot	Guillemot	pute
Möller's	Guru	Guru	pyridoksin
MOP	Handspring	Handspring	pyrisept
MoroccanOil	Hansol	Hansol	q 10
Moschino	harman/kardon	harman/kardon	q10
Motorola	Hauppauge!	Hauppauge!	quest
Natures Sunshine	Hercules	Hercules	questbar
Neccin	Highpoint	Highpoint	QUESTBAR CHOCO
Nina Ricci	Hitachi	Hitachi	Questbar chocolate brownie +
Nino Cerruti	HP	HP	ranitidin
Nisim	HP PDA	HP PDA	ready
Nisim Firma Shape	Hyundai	Hyundai	ready set go
NOKA	iAudio	iAudio	recover
Nutrilett	IBM	IBM	recovery gel
Nvey Eco	Icemat	Icemat	recrea
Nyx	Identicator	Identicator	recrea 
OBH Nordica	Imation	Imation	recrea forte
Ole Henriksen	In-Win	In-Win	red i
Ombar	Industry	Industry	red-i
One	Infinity	Infinity	refleks
Opi	Infocus	Infocus	regulamine
ORAL-B	Intel	Intel	reise
Oribe	Intern	Intern	reisesyke
Orofluido	Iomega	Iomega	relax
Oscar De La Renta	iRiver	iRiver	relief
Ottlite	J-S	J-S	relief gel
P20	Jasc	Jasc	ren
Paco Rabanne	JazPiper	JazPiper	ren renseprodukter
Paris Hilton	JBL	JBL	rens
Paul Mitchell	JMR	JMR	renu
Pearl Of Argan	JNC	JNC	repadina
PHILIPS	JOS	JOS	repsils
Pikasol	Jupiter	Jupiter	resept
Pin up balm	JVC	JVC	resource
Piz Buin	KA	KA	reva
Prada	Kabler, eksterne	Kabler, eksterne	revax
Proclé	Kabler, interne	Kabler, interne	revaxør
Pukka	Kaon	Kaon	revitive
Pulsin	Keytronic	Keytronic	Revitive 
Pureology	Kingston	Kingston	RFS
Ralph Lauren	Kiss	Kiss	rfsu
Ray-Ban	Kjønnvendere	Kjønnvendere	rfsu 
Real Techniques	Kodak	Kodak	rhinoil
Redken	Komplett	Komplett	rhinox
Redken For Men	Komplett.se	Komplett.se	rich
Remington	Konica	Konica	ridian
REN	Kort	Kort	rød
Renati	KryoTech	KryoTech	røkelse
Revlon	Kyocera	Kyocera	Rosenrot
Roberto Cavalli	Labelle	Labelle	safran
Rosebud	Labtec	Labtec	saks
Salvequick	Ladere/batterier	Ladere/batterier	Sakser
Sara Happ	Lanse	Lanse	Såle
Sarah Jessica Parker	Lead	Lead	såler
SASSON for men	Lexar	Lexar	salisyl
Scholl	Lexmark	Lexmark	salisylsyre
Schwarzkopf BC Bonacure	LG	LG	salisylsyre naf
Schwarzkopf Blonde	LGS	LGS	saliva
Schwarzkopf Natural & Easy	Likom	Likom	salon
Schwarzkopf Osis	Lite On	Lite On	salt
Schwarzkopf Silhouette	Logitech	Logitech	saltvan
Sebastian	Loke	Loke	saltvann
Sexy Hair	Luna	Luna	salve
Shadow Tans	M-Tech	M-Tech	salver
SHIFT	Macase	Macase	salvi
Shiseido	Macromedia	Macromedia	sambucol
Shiseido Men	Matrox	Matrox	sampakk
Sif Jakobs	Maxtor	Maxtor	sanasol
Sisley	MB-Media	MB-Media	Såpe
Sloggi	Mcafee	Mcafee	sårgele
Smilelab	Med management	Med management	Sb
Snö of Sweden	Mediaforte	Mediaforte	Sb12
Sny	Mediakonverter fiber	Mediakonverter fiber	scd560
St. Tropez	Medion	Medion	Scheriproct
Sturgeon Sunglasses	Megadata	Megadata	Scheriproct 
Supernature	Memorex	Memorex	scholl
Swarovski	Memorycard	Memorycard	Scholl diamond
Tangle Teezer	Merlin Gerin	Merlin Gerin	Scholl gel
TEFAL	Mermaid	Mermaid	scott math
The Balm	Metric	Metric	Seba med
The Raw Chocolate Company	Micro-star	Micro-star	sebamed
Thierry Mugler	Micron	Micron	Sebamed Sjampo Mot Flass
This manufacturer has no products	Microsoft	Microsoft	sebore
Tig Bedhead For Men	Microsoft MOL	Microsoft MOL	selolje
Tig S-Factor	Microtek	Microtek	selukos
Tigi Bedhead	Minnekort	Minnekort	selvtest
Tigi Bedhead For Men	Minolta	Minolta	selvtest 
Tigi Catwalk	Miro	Miro	selvtester
Tigi Love, Peace & The Planet	MiTac	MiTac	selvtester¨
Tigi Pro	Mitsubishi	Mitsubishi	semper
Tigi Reborn	Mitsumi	Mitsumi	sense
Tigi Rockaholic	MMORE	MMORE	sensitive
Tigi S-Factor	Mobility	Mobility	Sensodyne
TIQ	Mosel	Mosel	serum
TL Design	Motorola	Motorola	servietter
Tommy Hilfiger	MP GIO	MP GIO	set
Toni&Guy	MP3-tilbehør	MP3-tilbehør	sex
TOPCOM KIDZZZ	MQ	MQ	sexhjelpemidler
Travalo	MSI	MSI	sh
Triumph	Mustek	Mustek	shampoo
Triwa	Mylex	Mylex	shampoo barn
Valentino	Natcomp	Natcomp	shave
VEET	Neato	Neato	sheer
Vera Wang	NEC	NEC	shield
Versace	NEOVO	NEOVO	shower
Vg Sunglasses	Nero	Nero	silulen
Vichy	NetComm	NetComm	simple
Vichy Homme	Nextway	Nextway	sink
Vidal Sassoon	Nikon	Nikon	Sinoclear
Virage Eyewear	NN	NN	Sirkulasjon 
Voluspa	Nokia	Nokia	sitron
Weleda	Norman	Norman	sitronsyre
Wella SP	NorthQ	NorthQ	sjokolade
Wella SP Just Men	Norton	Norton	sjøvann
Wilfa	Novell	Novell	skabb
X-Loop Sunglasses	Novita	Novita	skjold
Ysl	Nvidia	Nvidia	skrape
Yves Saint Laurent	Odin	Odin	skrubb
Abilica	Office	Office	skum
Accessories	Oki	Oki	skylling
Adonia Organics	Olivetti	Olivetti	slip
Agadir Argan Oil	Olympus	Olympus	slip 
Agent Provocateur	Onboard Kit	Onboard Kit	smekke
Alterna	Onstream	Onstream	smeltetabletter
Amanprana	Opteron	Opteron	smerte
Amargan	Opti	Opti	sminke
American Crew	Opticon	Opticon	smokk
Anna Sui	Orchid	Orchid	Smokker
Anny	Ortek	Ortek	smootie
Ardell	OSK	OSK	snøgg
Atkins	Palladine	Palladine	Snork
Aviator Sunglasses	Palm	Palm	snorke
Axellus	Palm tilbehør	Palm tilbehør	snorking
Babor	Panasonic	Panasonic	sofia
Babyliss	Panda	Panda	sokker
Bac Away	Parallell	Parallell	sol
bareMinerals	PC i delar	PC i delar	sol
Beauty Blender	PC Kit	PC Kit	sølefri kopp
Beauty Organizers	Pc-Ram	Pc-Ram	solhatt
Becksöndergaard	Pentax	Pentax	solkrem
Beond	Pentium 4	Pentium 4	solkrem baby
Billion Dollar Brows	Peyton	Peyton	solkrem barn
Biohazard Sunglasses	Philips	Philips	solspray
Biosilk	Philips/Elo	Philips/Elo	solstift
Biotherm	Pine	Pine	solvipect
Biotherm Homme	Pinnacle	Pinnacle	soma
Blax	Pioneer	Pioneer	somac
Bliss	Plextor	Plextor	sopp
Blush.no	PLUS	PLUS	sorbact
Blush.no Gavekort	portreplikatorer	portreplikatorer	sort
BOSCH	Posso	Posso	sov i ro
BRAUN	PowerBag	PowerBag	sove
Britney Spears	PowerColor	PowerColor	søvn
Bumble and bumble	PowerQuest	PowerQuest	spa
Burberry	Pretec	Pretec	spenol
Burt's Bees	Princo	Princo	spider
Cacharel	Promise	Promise	spiral
Calvin Klein	Prostore	Prostore	sportstape
CandyStore	Pulsar	Pulsar	spotless
Carita	Push!	Push!	spotlight
Carolina Herrera	Q-Tec	Q-Tec	spray
Cg Sunglasses	QDI	QDI	sprayflaske
Chanel	QMS	QMS	sprøyte
CHI	Quantum	Quantum	Sprøyte 
Chi Man	QuietPc	QuietPc	Sprøytet
Chloé	Radix	Radix	start
Choppers Sunglasses	Raritan	Raritan	sterilt vann
Christian Dior	Ratac	Ratac	stick
Christina Aquilera	Razer	Razer	stickOff
Ciaté	Recom	Recom	stikkpiller 
Cinecitta Pennollo	Ricoh	Ricoh	stillbar
Clarins	Rimax	Rimax	stokker
Clarins Men	Rio	Rio	stomi
Clean	Rittal	Rittal	stop 24
Clinique	Route 66	Route 66	Stop24
Clinique Men	Roxio	Roxio	Stopp
Cloud Nine	Safetycable	Safetycable	Støtte strømper
Collett	Saitek	Saitek	støttestrømpe
Contigo	Samsung	Samsung	Støttestrømpe 
Crabtree & Evelyn	SandDisk	SandDisk	støttestrømpe sort
Cupcake Organic	Sanyo	Sanyo	støttestrømper
D:Fi	Sapphire	Sapphire	strength
Daniel Wellington	Saturn	Saturn	strips
Darphin	Savestore	Savestore	strømpe
David Beckham	Scaleo	Scaleo	strømpebukse
Davidoff	Scanmagic	Scanmagic	suavinex
Davines	Scansoft	Scansoft	Suavinex fusion smokk latex 4m+
Deborah Lippmann	SCM	SCM	sugetabletter
Decleor	SCSI adapter	SCSI adapter	sukker
Decléor	SCSI kabel ekstern	SCSI kabel ekstern	Sukkerfri
DENTWAY	SCSI kabel intern	SCSI kabel intern	summer
Dermalogica	SCSI terminator	SCSI terminator	sun lotion
Dg Sunglasses	SDRAM	SDRAM	sunlotion
Diesel	Seagate	Seagate	super
Disney	Sense	Sense	support
DKNY	Server Kit	Server Kit	support gel
Dolce & Gabbana	Shuttle	Shuttle	sure oppstøt
Donna Karan	Siemens	Siemens	Svane
Dr. Brandt	Sigma Designs	Sigma Designs	svart
Duo	Signature	Signature	swereco
Durance	SiliTek	SiliTek	swing
Ed Hardy	SimpleTech	SimpleTech	tå
Elemis	SiPix	SiPix	talkum
Elemis - Time for men	Sky Hawk	Sky Hawk	tamponger
Elizabeth Arden	Smart Buy	Smart Buy	tann
Emi-Jay	Smart Modular	Smart Modular	tannbørste
English Tea Shop	SMC	SMC	tannbørste barn
EOS	Socket 423	Socket 423	tannkrem
Escada	Socket 478	Socket 478	tannstikkere
Essie	Socket 745/940	Socket 745/940	Tanntråd
Estée Lauder	Socket A/7/370/FCPGA	Socket A/7/370/FCPGA	tanntrådbøyle
Exentri	Soft GSM	Soft GSM	tape
Fake Bake	Softline	Softline	te
Firm Shape	Sone 1	Sone 1	tegaderm
Flo	Sone 2	Sone 2	teknisk
Framesi	Sony	Sony	Tena
French Connection	Sony Ericsson	Sony Ericsson	tena men
Fudge	SOS-Dram	SOS-Dram	Tena slip
Fusion Beauty	Spectek	Spectek	tenner
Gerimax	Speed	Speed	tens
GHD	Spiffy	Spiffy	tensoplast
GHD Rettetang	Spire	Spire	termo
Gillette	Sunsway	Sunsway	termometer
Giorgio Armani	Suntek	Suntek	termometer 
Givenchy	Supra	Supra	terumo
Glam Glow	Swissvoice	Swissvoice	terumo sprøyte 2,5
Glominerals	Switch 1000, unmanaged	Switch 1000, unmanaged	test
Goldwell	Symantec	Symantec	tester
GoToob	Symantec SVLP	Symantec SVLP	theal
Green & Black's	Symbios	Symbios	Thealoz duo
Gucci	T-Å	T-Å	therm
Guerlain	TaiSol	TaiSol	thermacare
Gwen Stefani	Tandberg	Tandberg	thermale
Halycon Days	Targa	Targa	tiamin
Hawaiian Tropic	Targus	Targus	tiger
Helena Rubinstein	Tcom	Tcom	tigerbalsam
HEMPZ	Teac	Teac	Timer
Hermes	Technics	Technics	titralac
HH Simonsen	Techworks	Techworks	toalettmappe
Hot Tot	Tek	Tek	tøfler
Hugo Boss	TekComm	TekComm	toleriane
I Am Pure	Tekram	Tekram	tom
id HAIR	Tektronicx	Tektronicx	tørr
Invisi Bobble	Tele 2	Tele 2	tørr engangsklut
Issey Miyake	Teleline	Teleline	tørr føtter
iWhite	Telenor	Telenor	tørr hud og føtter
J. LO	TeleS	TeleS	touch
J.LO	Tellus	Tellus	Tragant
Jan Thomas	Terminatorer, eksterne	Terminatorer, eksterne	Tran
Jean Paul Gaultier	Terminatorer, interne	Terminatorer, interne	tranebær
Jennifer Lopez	TerraTec	TerraTec	travel
Jimmy Choo	Thermal Integration	Thermal Integration	tre
John Masters Organics	Thermaltake	Thermaltake	treg mage
Joico	Thor	Thor	trekanttørkle
Jonathan	ThrustMaster	ThrustMaster	Triomar
Jonathan products	Tilbehør	Tilbehør	trix
Juicy Couture	Tilbehør, annet	Tilbehør, annet	trixera
Justin Bieber	Tin	Tin	trøfler
Kakalaqic	Tipro	Tipro	ttends
Kanebo	Toshiba	Toshiba	tyggegumm
Kari Traa	TP bulk	TP bulk	tyggetabletter calcium
Kenzo	TP patch, skjermet	TP patch, skjermet	tyggetabletter vitamin d
Kérastase	TP patch, uskjermet	TP patch, uskjermet	tyggis
Kérastase Homme	TP patch, uskjermet, krysset	TP patch, uskjermet, krysset	ull
Keune	TransiNor	TransiNor	urea
Kms California	Traxdata	Traxdata	urinflaske
Kolokrem	Triax	Triax	urinprøve
KÖNIG	Trimm	Trimm	urinprøveglass
Korres	Trust	Trust	Urinprøveglass 60ml
KOSS	TwinMOS	TwinMOS	Urinprøveglass 60ml m
L'Oréal Homme	Ubi Soft	Ubi Soft	Urinprøveglass 60ml m/skrulokk
L'Oreal Paris	Umates	Umates	Urinveisinfeksjon
L'Oréal Playball	Undervannshus	Undervannshus	uristix
L'Oréal Professionnel	UNICOL	UNICOL	urter
L'Oréal Serie Expert	United	United	urtesalt
L'Oréal Serie Nature	Upgrade Kit	Upgrade Kit	utflod
L'Oréal TecniArt	Uppgraderingspaket	Uppgraderingspaket	v
L`Occitane	US Robotics	US Robotics	V6
Label.m	USB	USB	Vagina
Lacoste	Utimaco	Utimaco	vaginal
Lady Gaga	Verbatim	Verbatim	Valerina
Lagerfeld	Veritas	Veritas	vann
Lancaster	Vesker	Vesker	varme
Lancome	VIA	VIA	Varme 
Lancôme	VideoLogic	VideoLogic	Varmeflaske
Lancôme Men	Viewpoint	Viewpoint	varmende
Lashem	Viewsonic	Viewsonic	varmepakning
Laura Biagiotti	Viewstar	Viewstar	vårter
Le Tan	Viewtop	Viewtop	vaselin
Locs Sunglasses	Viking	Viking	Velvet smooth
Lolita Lempicka	Visioneer	Visioneer	venus
Luma Hairbrush	Volymrabatter	Volymrabatter	vermox
MAC	Wacom	Wacom	verucid
Macadamia Natural Oil	Western	Western	via
Mama Mio	Wicom	Wicom	Vibrator
Marc Jacobs	Widget	Widget	vichy
Marvis	Winbond	Winbond	vichy a
Matis	Winbound	Winbound	vichy aqua
Matis Homme	Xerox	Xerox	vichy aquali thermal
Matrix	Xircom	Xircom	Vichy aqualia
Matrix Men	Yamaha	Yamaha	Vichy balsam
Max Factor	Yuan	Yuan	Vichy balsam 
Maxim	Zebra	Zebra	vichy dercos
Maya Water	Zquid	Zquid	vichy homme
Maybelline	Zyxel	Zyxel	Vichy Homme 
Accessories	1000 Mbps	1000 Mbps	Vichy homme barberskum
Adonia Organics	3. Part	3. Part	vichy idealia
Agadir Argan Oil	3Com	3Com	Vichy Liftactiv derm source nattkrem
Agent Provocateur	3DFX COOL	3DFX COOL	vichy neovadiol
Alterna	3DFX Interactive	3DFX Interactive	vichy nu
Amanprana	3DLabs	3DLabs	vichy pur
Amargan	A-I	A-I	vichy shampoo
American Crew	A4tech	A4tech	vichy spot
Anna Sui	Aashima	Aashima	viktor
Anny	Abit	Abit	vitamin
Ardell	Absolute	Absolute	vitamin b
Atkins	AC Ryan	AC Ryan	vitamin d
Aviator Sunglasses	Accton	Accton	vitamin E cream 
Axellus	Acer	Acer	vitaminer
Babor	Actima	Actima	vitaminermineraler
Babyliss	Adaptec	Adaptec	vitapos
Bac Away	Adaptere, eksterne	Adaptere, eksterne	vivag
bareMinerals	Adaptere, intern/ekstern	Adaptere, intern/ekstern	voks
Beauty Blender	Adaptere, interne	Adaptere, interne	voltarol
Beauty Organizers	Addonics	Addonics	Voltarol 
Becksöndergaard	Addtron	Addtron	voltarol forte
Beond	ADi	ADi	volume-filler
Billion Dollar Brows	Adobe	Adobe	Vort
Biohazard Sunglasses	ADS	ADS	Vorte
Biosilk	ADSL	ADSL	vortefri
Biotherm	Advansys	Advansys	vorter
Biotherm Homme	Afreey	Afreey	watch
Blax	Agfa	Agfa	watch 
Bliss	Ahead	Ahead	white
Blush.no	AipTek	AipTek	wool
Blush.no Gavekort	Aksesspunkt	Aksesspunkt	wortie
BOSCH	Aksesspunkt + Router	Aksesspunkt + Router	wow
BRAUN	Alpine	Alpine	xero
Britney Spears	Altec Lansing	Altec Lansing	xls
Bumble and bumble	AmbiCom	AmbiCom	Xls medical
Burberry	AMD	AMD	xl-s medical
Burt's Bees	AMI	AMI	Xs
Cacharel	Anir	Anir	xylocain
Calvin Klein	Antec	Antec	yesno
CandyStore	AOC	AOC	yesno egg
Carita	Aopen	Aopen	yesno eggløsning
Carolina Herrera	Apacer	Apacer	zantac
Cg Sunglasses	Apollo	Apollo	Zapp
Chanel	Appian	Appian	zendium
CHI	Apple	Apple	Zendium junior tannkrem
Chi Man	Arbeidsstasjon	Arbeidsstasjon	Zendium kids
Chloé	ARC	ARC	zonnic
Choppers Sunglasses	Archos	Archos	Zoo lac
Christian Dior	Arcserv	Arcserv	zoolac
Christina Aquilera	Artec	Artec	zycomb
Ciaté	Ascom	Ascom	zymelin
Cinecitta Pennollo	ASK	ASK	zyrtec
Clarins	Assistent	Assistent	zyx
Clarins Men	Astra	Astra	zymelin
Clean	Asus	Asus	zyrtec
Clinique	Asuscom	Asuscom	zyx
Clinique Men	ATC	ATC	zyx
